module petrol-station

go 1.19

require (
	github.com/aws/aws-sdk-go v1.44.212
	github.com/deckarep/golang-set/v2 v2.1.0
	github.com/gin-gonic/gin v1.9.1
	github.com/go-playground/validator/v10 v10.19.0
	github.com/google/uuid v1.3.0
	github.com/itsjamie/gin-cors v0.0.0-20220228161158-ef28d3d2a0a8
	github.com/lib/pq v1.10.9
	github.com/sirupsen/logrus v1.9.3
	github.com/swaggo/files v1.0.1
	github.com/swaggo/gin-swagger v1.6.0
	go.mongodb.org/mongo-driver v1.11.2
	golang.org/x/text v0.14.0
	gopkg.in/gomail.v2 v2.0.0-20160411212932-81ebce5c23df
	gorm.io/driver/postgres v1.5.7
	gorm.io/gorm v1.25.8
)

require (
	github.com/chenzhuoyu/iasm v0.9.1 // indirect
	github.com/gabriel-vasile/mimetype v1.4.3 // indirect
	github.com/gin-contrib/cors v1.4.0 // indirect
	github.com/go-sql-driver/mysql v1.7.0 // indirect
	github.com/golang-jwt/jwt/v4 v4.5.0 // indirect
	github.com/jackc/puddle/v2 v2.2.1 // indirect
	github.com/mitchellh/mapstructure v1.5.0 // indirect
	gorm.io/driver/mysql v1.4.4 // indirect
)

require (
	github.com/KyleBanks/depth v1.2.1 // indirect
	github.com/appleboy/gin-jwt/v2 v2.9.2
	github.com/bytedance/sonic v1.11.3 // indirect
	github.com/chenzhuoyu/base64x v0.0.0-20230717121745-296ad89f973d // indirect
	github.com/gin-contrib/sse v0.1.0 // indirect
	github.com/go-openapi/jsonpointer v0.21.0 // indirect
	github.com/go-openapi/jsonreference v0.21.0 // indirect
	github.com/go-openapi/spec v0.21.0 // indirect
	github.com/go-openapi/swag v0.23.0 // indirect
	github.com/go-playground/locales v0.14.1 // indirect
	github.com/go-playground/universal-translator v0.18.1 // indirect
	github.com/goccy/go-json v0.10.2 // indirect
	github.com/gofrs/uuid v4.4.0+incompatible
	github.com/golang/snappy v0.0.4 // indirect
	github.com/jackc/pgpassfile v1.0.0 // indirect
	github.com/jackc/pgservicefile v0.0.0-20231201235250-de7065d80cb9 // indirect
	github.com/jackc/pgx/v5 v5.5.5 // indirect
	github.com/jinzhu/inflection v1.0.0
	github.com/jinzhu/now v1.1.5 // indirect
	github.com/jmespath/go-jmespath v0.4.0 // indirect
	github.com/josharian/intern v1.0.0 // indirect
	github.com/json-iterator/go v1.1.12 // indirect
	github.com/klauspost/compress v1.16.0 // indirect
	github.com/klauspost/cpuid/v2 v2.2.7 // indirect
	github.com/leodido/go-urn v1.4.0 // indirect
	github.com/mailru/easyjson v0.7.7 // indirect
	github.com/mattn/go-isatty v0.0.20 // indirect
	github.com/modern-go/concurrent v0.0.0-20180306012644-bacd9c7ef1dd // indirect
	github.com/modern-go/reflect2 v1.0.2 // indirect
	github.com/montanaflynn/stats v0.7.0 // indirect
	github.com/pelletier/go-toml/v2 v2.2.0 // indirect
	github.com/pkg/errors v0.9.1 // indirect
	github.com/shopspring/decimal v1.3.1
	github.com/swaggo/swag v1.16.3
	github.com/twitchyliquid64/golang-asm v0.15.1 // indirect
	github.com/ugorji/go/codec v1.2.12 // indirect
	github.com/xdg-go/pbkdf2 v1.0.0 // indirect
	github.com/xdg-go/scram v1.1.2 // indirect
	github.com/xdg-go/stringprep v1.0.4 // indirect
	github.com/youmark/pkcs8 v0.0.0-20201027041543-1326539a0a0a // indirect
	golang.org/x/arch v0.7.0 // indirect
	golang.org/x/crypto v0.21.0 // indirect
	golang.org/x/net v0.22.0 // indirect
	golang.org/x/sync v0.6.0 // indirect
	golang.org/x/sys v0.18.0 // indirect
	golang.org/x/tools v0.19.0 // indirect
	google.golang.org/genproto v0.0.0-20240125205218-1f4bbc51befe
	google.golang.org/protobuf v1.33.0 // indirect
	gopkg.in/alexcesaro/quotedprintable.v3 v3.0.0-20150716171945-2caba252f4dc // indirect
	gopkg.in/yaml.v3 v3.0.1 // indirect
	gorm.io/datatypes v1.1.0
)
